{
  "LanguageClient-neovim": { "branch": "next", "commit": "cf6dd11baf62fb6ce18308e96c0ab43428b7c686" },
  "auto-session": { "branch": "main", "commit": "9e0a169b6fce8791278abbd110717b921afe634d" },
  "coc.nvim": { "branch": "master", "commit": "c7e92a70738e17d819eb8fcbe5176e1fd89bb0a8" },
  "cyberdream.nvim": { "branch": "main", "commit": "c3eff4c5df805bb9451129151509d5624295f416" },
  "delimitMate": { "branch": "master", "commit": "537a1da0fa5eeb88640425c37e545af933c56e1b" },
  "editorconfig-vim": { "branch": "master", "commit": "8b7da79e9daee7a3f3a8d4fe29886b9756305aff" },
  "format-ts-errors.nvim": { "branch": "main", "commit": "5dca66563baa9ccfff820b7ba97a2836d2421f7f" },
  "indent-blankline.nvim": { "branch": "master", "commit": "3d08501caef2329aba5121b753e903904088f7e6" },
  "lazygit.nvim": { "branch": "main", "commit": "ad3e1ea592f9d13e86e0d4e850224d9d78069508" },
  "leap.nvim": { "branch": "main", "commit": "be68eec21e37415d15cffaabc959b8d3f9466665" },
  "lsp-progress.nvim": { "branch": "main", "commit": "0d45f17f681c2e664238a1f6c02865760692609d" },
  "lspsaga.nvim": { "branch": "main", "commit": "249f44f0746f27dcf252919d1c11e9d45075e4ca" },
  "lualine.nvim": { "branch": "master", "commit": "0a5a66803c7407767b799067986b4dc3036e1983" },
  "neogit": { "branch": "master", "commit": "bc0c609e3568a171e0549b449aa1b2b4b5b20e8c" },
  "noice.nvim": { "branch": "main", "commit": "09102ca2e9a3e9302119fdaf7a059a034e4a626d" },
  "nui.nvim": { "branch": "main", "commit": "a3597dc88b53489d3fddbddbbd13787355253bb0" },
  "nvim-colorizer.lua": { "branch": "master", "commit": "85855b38011114929f4058efc97af1059ab3e41d" },
  "nvim-comment": { "branch": "main", "commit": "e9ac16ab056695cad6461173693069ec070d2b23" },
  "nvim-lspconfig": { "branch": "master", "commit": "a27179f56c6f98a4cdcc79ee2971b514815a4940" },
  "nvim-notify": { "branch": "master", "commit": "5371f4bfc1f6d3adf4fe9d62cd3a9d44356bfd15" },
  "nvim-scrollview": { "branch": "main", "commit": "5a7eb7e6c1b921761615b57a6140d73b1cc2b034" },
  "nvim-tree.lua": { "branch": "master", "commit": "2bc725a3ebc23f0172fb0ab4d1134b81bcc13812" },
  "nvim-treesitter": { "branch": "master", "commit": "f197a15b0d1e8d555263af20add51450e5aaa1f0" },
  "nvim-web-devicons": { "branch": "master", "commit": "e37bb1feee9e7320c76050a55443fa843b4b6f83" },
  "octo.nvim": { "branch": "master", "commit": "5646539320cd62af6ff28f48ec92aeb724c68e18" },
  "plenary.nvim": { "branch": "master", "commit": "08e301982b9a057110ede7a735dd1b5285eb341f" },
  "retrospect.nvim": { "branch": "main", "commit": "db133928e0b8f72a123b57d2c0e8d561ec4c7f96" },
  "session-lens": { "branch": "main", "commit": "1b65d8e1bcd1836c5135cce118ba18d662a9dabd" },
  "sidebar.nvim": { "branch": "main", "commit": "5695712eef6288fff667343c4ae77c54911bdb1b" },
  "startup.nvim": { "branch": "master", "commit": "c6ba324f9eba0c23b675b53af431346aab893268" },
  "suda.vim": { "branch": "master", "commit": "b97fab52f9cdeabe2bbb5eb98d82356899f30829" },
  "telescope-fzf-native.nvim": { "branch": "main", "commit": "9ef21b2e6bb6ebeaf349a0781745549bbb870d27" },
  "telescope.nvim": { "branch": "master", "commit": "6f6bb8065567b56c42e283b06e8a1c670c0092a1" },
  "vim-fugitive": { "branch": "master", "commit": "ce882460cf3db12e99f8bf579cbf99e331f6dd4f" },
  "vim-surround": { "branch": "master", "commit": "3d188ed2113431cf8dac77be61b842acb64433d9" },
  "vim-visual-multi": { "branch": "master", "commit": "b84a6d42c1c10678928b0bf8327f378c8bc8af5a" },
  "vimspector": { "branch": "master", "commit": "c664d723ffe5d5179b906d8ef370b59e70b84f5a" },
  "which-key.nvim": { "branch": "main", "commit": "4433e5ec9a507e5097571ed55c02ea9658fb268a" }
}